{
  "project_info": {
    "project_number": "55761443342",
    "firebase_url": "https://bloodmanager-5c873.firebaseio.com",
    "project_id": "bloodmanager-5c873",
    "storage_bucket": "bloodmanager-5c873.appspot.com"
  },
  "client": [
    {
      "client_info": {
        "mobilesdk_app_id": "1:55761443342:android:9e6f4d2057f98506",
        "android_client_info": {
          "package_name": "com.example.eftekher.android.bloodmanager"
        }
      },
      "oauth_client": [
        {
          "client_id": "55761443342-040cnrt5uj8db604vootulu34knldirm.apps.googleusercontent.com",
          "client_type": 1,
          "android_info": {
            "package_name": "com.example.eftekher.android.bloodmanager",
            "certificate_hash": "bafbd109e37a214784ce30985eaac808b138f4ae"
          }
        },
        {
          "client_id": "55761443342-s4chqh0djfii3j59vodlgq3gnp0lolku.apps.googleusercontent.com",
          "client_type": 3
        }
      ],
      "api_key": [
        {
          "current_key": "AIzaSyCx28ob2GD6Sthi52dweM86R1h_iuWvHHM"
        }
      ],
      "services": {
        "analytics_service": {
          "status": 1
        },
        "appinvite_service": {
          "status": 2,
          "other_platform_oauth_client": [
            {
              "client_id": "55761443342-s4chqh0djfii3j59vodlgq3gnp0lolku.apps.googleusercontent.com",
              "client_type": 3
            }
          ]
        },
        "ads_service": {
          "status": 2
        }
      }
    }
  ],
  "configuration_version": "1"
}